  mylist = []
    mylist2 = []
    empty = []
    s = Scanner("tweet1_demo.txt")
    line = " "
    num_tweets = 0
    line = s.readline()
    while line != "":
        line = line.strip()
        mylist2 = list(line)
        print(mylist2)
        mylist2.remove("@")
        print(mylist2)
        deliminator = ""
        line = deliminator.join(mylist2)
        mylist.append(line.split("\""))
        num_tweets += 1
        line = s.readline()
    del mylist[num_tweets-1]
    print ("Number of tweets %i" %(num_tweets))
    print (mylist)
    mylist.sort(key = lambda mylist:mylist[2], reverse = True)
    print ("\n" , mylist)