,#Data Comparisons,#Loop Comparisons,#Data assignments,#Loop Control,#Other,Total Operations
Ascendeding N = 100,98,100,2,98,0,298
Ascendeding N = 200,198,200,2,198,0,598
Ascendeding N = 300,298,300,2,298,0,898
Ascendeding N = 500,498,500,2,498,0,1498
Descending N = 100,9702,9802,14653,14553,0,48710
Descending N = 200,39402,39602,59303,59103,0,197410
Descending N = 300,89102,89402,133953,133653,0,446110
Descending N = 500,248502,249002,373253,372753,0,1243510
Random N = 100,8918,9010,8081,11581,0,37590
Random N = 200,35046,35224,28813,44591,0,143674
Random N = 300,84036,84319,68197,106674,0,343226
Random N = 500,239538,240020,189917,302683,0,972158
