 0.00  12564.00  193.38  33.50  226.88 
 1.00  12370.62  193.89  32.99  226.88 
 2.00  12176.73  194.41  32.47  226.88 
 3.00  11982.32  194.93  31.95  226.88 
 4.00  11787.39  195.45  31.43  226.88 
 5.00  11591.94  195.97  30.91  226.88 
 6.00  11395.97  196.49  30.39  226.88 
 7.00  11199.48  197.01  29.87  226.88 
 8.00  11002.47  197.54  29.34  226.88 
 9.00  10804.93  198.07  28.81  226.88 
 10.00  10606.86  198.60  28.28  226.88 
 11.00  10408.26  199.12  27.76  226.88 
 12.00  10209.14  199.66  27.22  226.88 
 13.00  10009.48  200.19  26.69  226.88 
 14.00  9809.29  200.72  26.16  226.88 
 15.00  9608.57  201.26  25.62  226.88 
 16.00  9407.31  201.79  25.09  226.88 
 17.00  9205.52  202.33  24.55  226.88 
 18.00  9003.19  202.87  24.01  226.88 
 19.00  8800.32  203.41  23.47  226.88 
 20.00  8596.91  203.95  22.93  226.88 
 21.00  8392.96  204.50  22.38  226.88 
 22.00  8188.46  205.04  21.84  226.88 
 23.00  7983.42  205.59  21.29  226.88 
 24.00  7777.83  206.14  20.74  226.88 
 25.00  7571.69  206.69  20.19  226.88 
 26.00  7365.00  207.24  19.64  226.88 
 27.00  7157.76  207.79  19.09  226.88 
 28.00  6949.97  208.35  18.53  226.88 
 29.00  6741.62  208.90  17.98  226.88 
 30.00  6532.72  209.46  17.42  226.88 
 31.00  6323.26  210.02  16.86  226.88 
 32.00  6113.24  210.58  16.30  226.88 
 33.00  5902.66  211.14  15.74  226.88 
 34.00  5691.52  211.70  15.18  226.88 
 35.00  5479.82  212.27  14.61  226.88 
 36.00  5267.55  212.83  14.05  226.88 
 37.00  5054.72  213.40  13.48  226.88 
 38.00  4841.32  213.97  12.91  226.88 
 39.00  4627.35  214.54  12.34  226.88 
 40.00  4412.81  215.11  11.77  226.88 
 41.00  4197.70  215.69  11.19  226.88 
 42.00  3982.01  216.26  10.62  226.88 
 43.00  3765.75  216.84  10.04  226.88 
 44.00  3548.91  217.42  9.46  226.88 
 45.00  3331.49  218.00  8.88  226.88 
 46.00  3113.49  218.58  8.30  226.88 
 47.00  2894.91  219.16  7.72  226.88 
 48.00  2675.75  219.74  7.14  226.88 
 49.00  2456.01  220.33  6.55  226.88 
 50.00  2235.68  220.92  5.96  226.88 
 51.00  2014.76  221.51  5.37  226.88 
 52.00  1793.25  222.10  4.78  226.88 
 53.00  1571.15  222.69  4.19  226.88 
 54.00  1348.46  223.28  3.60  226.88 
 55.00  1125.18  223.88  3.00  226.88 
 56.00  901.30  224.48  2.40  226.88 
 57.00  676.82  225.08  1.80  226.88 
 58.00  451.74  225.68  1.20  226.88 
 59.00  226.06  226.28  0.60  226.88 
 60.00  0.00  0.00  0.00  0.00 
