digraph Tree {
node [shape=box] ;
0 [label="sex <= 0.5\ngini = 0.4374\nsamples = 2201\nvalue = [1490, 711]"] ;
1 [label="class <= 2.5\ngini = 0.3924\nsamples = 470\nvalue = [126, 344]"] ;
0 -> 1 [labeldistance=2.5, labelangle=45, headlabel="True"] ;
2 [label="class <= 1.5\ngini = 0.1353\nsamples = 274\nvalue = [20, 254]"] ;
1 -> 2 ;
3 [label="class <= 0.5\ngini = 0.0799\nsamples = 168\nvalue = [7, 161]"] ;
2 -> 3 ;
4 [label="gini = 0.2268\nsamples = 23\nvalue = [3, 20]"] ;
3 -> 4 ;
5 [label="age <= 0.5\ngini = 0.0537\nsamples = 145\nvalue = [4, 141]"] ;
3 -> 5 ;
6 [label="gini = 0.0\nsamples = 1\nvalue = [0, 1]"] ;
5 -> 6 ;
7 [label="gini = 0.054\nsamples = 144\nvalue = [4, 140]"] ;
5 -> 7 ;
8 [label="age <= 0.5\ngini = 0.2152\nsamples = 106\nvalue = [13, 93]"] ;
2 -> 8 ;
9 [label="gini = 0.0\nsamples = 13\nvalue = [0, 13]"] ;
8 -> 9 ;
10 [label="gini = 0.2405\nsamples = 93\nvalue = [13, 80]"] ;
8 -> 10 ;
11 [label="age <= 0.5\ngini = 0.4967\nsamples = 196\nvalue = [106, 90]"] ;
1 -> 11 ;
12 [label="gini = 0.4953\nsamples = 31\nvalue = [17, 14]"] ;
11 -> 12 ;
13 [label="gini = 0.4969\nsamples = 165\nvalue = [89, 76]"] ;
11 -> 13 ;
14 [label="age <= 0.5\ngini = 0.3341\nsamples = 1731\nvalue = [1364, 367]"] ;
0 -> 14 [labeldistance=2.5, labelangle=-45, headlabel="False"] ;
15 [label="class <= 2.5\ngini = 0.4956\nsamples = 64\nvalue = [35, 29]"] ;
14 -> 15 ;
16 [label="gini = 0.0\nsamples = 16\nvalue = [0, 16]"] ;
15 -> 16 ;
17 [label="gini = 0.395\nsamples = 48\nvalue = [35, 13]"] ;
15 -> 17 ;
18 [label="class <= 1.5\ngini = 0.3233\nsamples = 1667\nvalue = [1329, 338]"] ;
14 -> 18 ;
19 [label="class <= 0.5\ngini = 0.3649\nsamples = 1037\nvalue = [788, 249]"] ;
18 -> 19 ;
20 [label="gini = 0.3463\nsamples = 862\nvalue = [670, 192]"] ;
19 -> 20 ;
21 [label="gini = 0.4392\nsamples = 175\nvalue = [118, 57]"] ;
19 -> 21 ;
22 [label="class <= 2.5\ngini = 0.2426\nsamples = 630\nvalue = [541, 89]"] ;
18 -> 22 ;
23 [label="gini = 0.1528\nsamples = 168\nvalue = [154, 14]"] ;
22 -> 23 ;
24 [label="gini = 0.272\nsamples = 462\nvalue = [387, 75]"] ;
22 -> 24 ;
}